{
	"info": {
		"_postman_id": "c8bf8f35-698b-4155-a929-d152815ee754",
		"name": "JVG Ttest",
		"schema": "https://schema.getpostman.com/json/collection/v2.1.0/collection.json"
	},
	"item": [
		{
			"name": "Home",
			"request": {
				"method": "GET",
				"header": [
					{
						"key": "Content-Type",
						"value": "application/json"
					}
				],
				"body": {
					"mode": "raw",
					"raw": ""
				},
				"url": {
					"raw": "localhost:8100/",
					"host": [
						"localhost"
					],
					"port": "8100",
					"path": [
						""
					]
				}
			},
			"response": []
		},
		{
			"name": "Login",
			"request": {
				"method": "POST",
				"header": [
					{
						"key": "Content-Type",
						"value": "application/json"
					}
				],
				"body": {
					"mode": "raw",
					"raw": "{\n\t\"username\": \"joan\",\n\t\"password\": \"1234\"\n}"
				},
				"url": {
					"raw": "localhost:8100/api/login",
					"host": [
						"jvg-test",
						"com"
					],
					"port": "8100",
					"path": [
						"api",
						"login"
					]
				}
			},
			"response": []
		},
		{
			"name": "Register",
			"request": {
				"method": "POST",
				"header": [
					{
						"key": "Content-Type",
						"value": "application/json"
					}
				],
				"body": {
					"mode": "raw",
					"raw": "{\n\t\"username\": \"marc\",\n\t\"password\": \"6789\"\n}"
				},
				"url": {
					"raw": "localhost:8100/api/register",
					"host": [
						"jvg-test",
						"com"
					],
					"port": "8100",
					"path": [
						"api",
						"register"
					]
				}
			},
			"response": []
		},
		{
			"name": "Search cars",
			"request": {
				"method": "POST",
				"header": [
					{
						"key": "Content-Type",
						"value": "application/json"
					}
				],
				"body": {
					"mode": "raw",
					"raw": "{\n  \"token\": \"eyJ0eXAiOiJKV1QiLCJhbGciOiJIUzI1NiJ9.eyJzZXNzaW9uU3RhcnREYXRlIjoxNTM2MzA0MjE3LCJ1c2VySWQiOjEsInVzZXJVc2VybmFtZSI6InRlc3QiLCJ1c2VyTmFtZSI6IlRlc3ROYW1lXG4ifQ.C0Qg-Q_uH7qLRd3kWXZjKPXPJeVf9VNTQZT1NQ3n2OI\",\n  \"latitude\": 49.284710,\n  \"longitude\": -123.114464\n}"
				},
				"url": {
					"raw": "localhost:8100/api/search",
					"host": [
						"jvg-test",
						"com"
					],
					"port": "8100",
					"path": [
						"api",
						"search"
					]
				}
			},
			"response": []
		},
		{
			"name": "Book car",
			"request": {
				"method": "POST",
				"header": [
					{
						"key": "Content-Type",
						"value": "application/json"
					}
				],
				"body": {
					"mode": "raw",
					"raw": "{\n  \"token\": \"eyJ0eXAiOiJKV1QiLCJhbGciOiJIUzI1NiJ9.eyJzZXNzaW9uU3RhcnREYXRlIjoxNTM2MjY0OTcxLCJ1c2VySWQiOjEsInVzZXJVc2VybmFtZSI6InRlc3QiLCJ1c2VyTmFtZSI6IlRlc3ROYW1lXG4ifQ.DoAsskcoMQcrK1h3RaKD3ENUPnNmuj5pJEv8EC4Y5v8\",\n  \"start\": \"2018-09-21 10:00\",\n  \"end\": \"2018-09-21 21:00\",\n  \"carId\": 1065\n}"
				},
				"url": {
					"raw": "localhost:8100/api/book",
					"host": [
						"jvg-test",
						"com"
					],
					"port": "8100",
					"path": [
						"api",
						"book"
					]
				}
			},
			"response": []
		}
	]
}